<svg xmlns="http://www.w3.org/2000/svg" xmlns:xlink="http://www.w3.org/1999/xlink" width="24" height="24" viewBox="0 0 24 24">
  <defs>
    <clipPath id="clip-path">
      <rect width="24" height="24" fill="none"/>
    </clipPath>
  </defs>
  <g id="Icon_Cancel_Filled" data-name="Icon / Cancel / Filled" opacity="0.55" clip-path="url(#clip-path)">
    <rect id="Box" width="24" height="24" fill="none"/>
    <path id="Icon_Cancel_Dark" data-name="Icon / Cancel / Dark" d="M155.889-9.524l-1.413,1.413L150.889-11.7,147.3-8.111l-1.413-1.413,3.588-3.588L145.889-16.7l1.413-1.413,3.587,3.588,3.587-3.588,1.413,1.413L152.3-13.111Zm-5-13.588a10,10,0,0,0-10,10,10,10,0,0,0,10,10,10,10,0,0,0,10-10,10,10,0,0,0-10-10Z" transform="translate(-138.889 25.111)" fill-rule="evenodd"/>
  </g>
</svg>
