<svg xmlns="http://www.w3.org/2000/svg" width="25.655" height="24.385" viewBox="0 0 25.655 24.385">
  <g id="home-run" transform="translate(0 -12.676)">
    <g id="Group_3" data-name="Group 3" transform="translate(0 12.675)">
      <g id="Group_2" data-name="Group 2" transform="translate(0 0)">
        <path id="Path_420" data-name="Path 420" d="M25.225,23.509,13.714,13.021a1.31,1.31,0,0,0-1.772,0L.431,23.509A1.316,1.316,0,0,0,1.317,25.8H3.155V36.306a.755.755,0,0,0,.754.754h6.309a.754.754,0,0,0,.754-.754V29.926h3.708v6.381a.755.755,0,0,0,.754.754h6.309a.754.754,0,0,0,.754-.754V25.8h1.839a1.315,1.315,0,0,0,.886-2.288Z" transform="translate(0 -12.675)" fill="#fff"/>
      </g>
    </g>
    <g id="Group_5" data-name="Group 5" transform="translate(17.236 14.181)">
      <g id="Group_4" data-name="Group 4">
        <path id="Path_421" data-name="Path 421" d="M349.04,42.73h-5.067l5.821,5.293V43.484A.754.754,0,0,0,349.04,42.73Z" transform="translate(-343.973 -42.73)" fill="#fff"/>
      </g>
    </g>
  </g>
</svg>
