<svg xmlns="http://www.w3.org/2000/svg" width="23.678" height="25.5" viewBox="0 0 23.678 25.5">
  <g id="refresh" transform="translate(-17.067)">
    <g id="Group_48" data-name="Group 48" transform="translate(17.067)">
      <g id="Group_47" data-name="Group 47" transform="translate(0)">
        <path id="Path_2097" data-name="Path 2097" d="M38.013,0A.911.911,0,0,0,37.1.911V4.238A11.816,11.816,0,0,0,17.067,12.75a.911.911,0,1,0,1.821,0A10.018,10.018,0,0,1,36.3,5.988L32.261,7.333a.912.912,0,1,0,.576,1.73L38.3,7.242a.911.911,0,0,0,.623-.867V.911A.911.911,0,0,0,38.013,0Z" transform="translate(-17.067)" fill="#fff"/>
      </g>
    </g>
    <g id="Group_50" data-name="Group 50" transform="translate(18.888 11.839)">
      <g id="Group_49" data-name="Group 49" transform="translate(0)">
        <path id="Path_2098" data-name="Path 2098" d="M72.144,221.867a.911.911,0,0,0-.911.911,10.018,10.018,0,0,1-17.407,6.762l4.034-1.345a.912.912,0,1,0-.576-1.73l-5.464,1.821a.911.911,0,0,0-.623.867v5.464a.911.911,0,0,0,1.821,0V231.29a11.816,11.816,0,0,0,20.036-8.512A.911.911,0,0,0,72.144,221.867Z" transform="translate(-51.198 -221.867)" fill="#fff"/>
      </g>
    </g>
  </g>
</svg>
