<svg id="review" xmlns="http://www.w3.org/2000/svg" width="48.026" height="48.026" viewBox="0 0 48.026 48.026">
  <path id="Path_2165" data-name="Path 2165" d="M42.867,7.5H41.46V4.221a4.221,4.221,0,0,0-8.442,0V5.373A3.3,3.3,0,0,1,30.637,8.53l-1.371.392V8.911A1.407,1.407,0,0,0,27.859,7.5H22.231a1.407,1.407,0,0,0-1.407,1.407V15.2H4.221A4.226,4.226,0,0,0,0,19.417v27.2A1.407,1.407,0,0,0,2.187,47.79l5.274-3.516H34.237a4.226,4.226,0,0,0,4.221-4.221V25.326h4.409a5.165,5.165,0,0,0,5.159-5.159v-7.5A5.165,5.165,0,0,0,42.867,7.5ZM23.638,10.318h2.814V22.512H23.638ZM35.644,40.053a1.409,1.409,0,0,1-1.407,1.407H7.035a1.407,1.407,0,0,0-.78.236L2.814,43.99V19.417A1.409,1.409,0,0,1,4.221,18.01h16.6v5.909a1.407,1.407,0,0,0,1.407,1.407h5.628a1.407,1.407,0,0,0,1.4-1.247,7.924,7.924,0,0,0,4.26,1.247h2.128Zm9.568-19.886a2.348,2.348,0,0,1-2.345,2.345H33.516a5.121,5.121,0,0,1-4.25-2.274V11.848l2.144-.613a6.123,6.123,0,0,0,4.422-5.863V4.221a1.407,1.407,0,1,1,2.814,0v4.69a1.407,1.407,0,0,0,1.407,1.407h2.814a2.348,2.348,0,0,1,2.345,2.345Z" fill="#051db9"/>
  <path id="Path_2166" data-name="Path 2166" d="M61.407,254.814h9.38a1.407,1.407,0,0,0,0-2.814h-9.38a1.407,1.407,0,1,0,0,2.814Z" transform="translate(-54.372 -228.362)" fill="#051db9"/>
  <path id="Path_2167" data-name="Path 2167" d="M85.8,312H61.407a1.407,1.407,0,0,0,0,2.814H85.8a1.407,1.407,0,0,0,0-2.814Z" transform="translate(-54.372 -282.734)" fill="#051db9"/>
  <path id="Path_2168" data-name="Path 2168" d="M85.8,372H61.407a1.407,1.407,0,1,0,0,2.814H85.8a1.407,1.407,0,1,0,0-2.814Z" transform="translate(-54.372 -337.106)" fill="#051db9"/>
</svg>
